{
  "stats": {
    "suites": 2,
    "tests": 1,
    "passes": 0,
    "pending": 0,
    "failures": 1,
    "start": "2021-08-29T15:51:35.632Z",
    "end": "2021-08-29T15:51:35.905Z",
    "duration": 273,
    "testsRegistered": 1,
    "passPercent": 0,
    "pendingPercent": 0,
    "other": 0,
    "hasOther": false,
    "skipped": 0,
    "hasSkipped": false
  },
  "results": [
    {
      "uuid": "ecd2d6bc-8311-4df4-af4d-1560da9e5fa0",
      "title": "",
      "fullFile": "cypress/integration/8-fulfilment/testConditional.spec.js",
      "file": "cypress/integration/8-fulfilment/testConditional.spec.js",
      "beforeHooks": [],
      "afterHooks": [],
      "tests": [],
      "suites": [
        {
          "uuid": "2ff25b9e-9ef2-46c4-b754-5731f57118ea",
          "title": "User",
          "fullFile": "",
          "file": "",
          "beforeHooks": [],
          "afterHooks": [],
          "tests": [],
          "suites": [
            {
              "uuid": "1da7a230-dd4c-45a3-a0b4-d58f5d39eb27",
              "title": "Get User Collection",
              "fullFile": "",
              "file": "",
              "beforeHooks": [],
              "afterHooks": [],
              "tests": [
                {
                  "title": "It shoud return 200OK with user collection",
                  "fullTitle": "User Get User Collection It shoud return 200OK with user collection",
                  "timedOut": null,
                  "duration": 232,
                  "state": "failed",
                  "speed": null,
                  "pass": false,
                  "fail": true,
                  "pending": false,
                  "context": null,
                  "code": "cy.request('https://reqres.in/api/users?page=2').then(result => {\n  if (result.body.page == 3) {\n    cy.log(\"This is second page\");\n    expect(result.status).ok;\n    expect(result.body.data).exist;\n  } else {\n    cy.log(\"This is other page\");\n    expect(result.status).to.eq(500);\n  }\n});",
                  "err": {
                    "message": "AssertionError: expected 200 to equal 500",
                    "estack": "AssertionError: expected 200 to equal 500\n    at Context.eval (http://localhost:62707/__cypress/tests?p=cypress\\integration\\8-fulfilment\\testConditional.spec.js:110:36)",
                    "diff": "- 200\n+ 500\n"
                  },
                  "uuid": "e242ce1c-3564-4f10-95e2-b58af9c88df0",
                  "parentUUID": "1da7a230-dd4c-45a3-a0b4-d58f5d39eb27",
                  "isHook": false,
                  "skipped": false
                }
              ],
              "suites": [],
              "passes": [],
              "failures": [
                "e242ce1c-3564-4f10-95e2-b58af9c88df0"
              ],
              "pending": [],
              "skipped": [],
              "duration": 232,
              "root": false,
              "rootEmpty": false,
              "_timeout": 2000
            }
          ],
          "passes": [],
          "failures": [],
          "pending": [],
          "skipped": [],
          "duration": 0,
          "root": false,
          "rootEmpty": false,
          "_timeout": 2000
        }
      ],
      "passes": [],
      "failures": [],
      "pending": [],
      "skipped": [],
      "duration": 0,
      "root": true,
      "rootEmpty": true,
      "_timeout": 2000
    }
  ],
  "meta": {
    "mocha": {
      "version": "7.0.1"
    },
    "mochawesome": {
      "options": {
        "quiet": false,
        "reportFilename": "mochawesome",
        "saveHtml": true,
        "saveJson": true,
        "consoleReporter": "spec",
        "useInlineDiffs": false,
        "code": true
      },
      "version": "6.2.2"
    },
    "marge": {
      "options": {
        "reportDir": "cypress/report/mochawesome-report",
        "overwrite": false,
        "html": true,
        "json": true,
        "timestamp": "mmddyyyy_HHMMss"
      },
      "version": "5.2.0"
    }
  }
}