{
  "stats": {
    "suites": 2,
    "tests": 1,
    "passes": 0,
    "pending": 0,
    "failures": 1,
    "start": "2021-08-29T15:53:53.425Z",
    "end": "2021-08-29T15:53:54.225Z",
    "duration": 800,
    "testsRegistered": 1,
    "passPercent": 0,
    "pendingPercent": 0,
    "other": 0,
    "hasOther": false,
    "skipped": 0,
    "hasSkipped": false
  },
  "results": [
    {
      "uuid": "977e35cd-3b01-4006-8ead-d4288d0d5b2b",
      "title": "",
      "fullFile": "cypress/integration/11-testMock/testStubJsonServer.spec.js",
      "file": "cypress/integration/11-testMock/testStubJsonServer.spec.js",
      "beforeHooks": [],
      "afterHooks": [],
      "tests": [],
      "suites": [
        {
          "uuid": "be6a4be2-7535-4c63-9781-dbb513aaf848",
          "title": "User",
          "fullFile": "",
          "file": "",
          "beforeHooks": [],
          "afterHooks": [],
          "tests": [],
          "suites": [
            {
              "uuid": "291cb0d9-6123-4892-bfd1-b93794241c61",
              "title": "Get User Collection",
              "fullFile": "",
              "file": "",
              "beforeHooks": [],
              "afterHooks": [],
              "tests": [
                {
                  "title": "It shoud return 200OK with user collection",
                  "fullTitle": "User Get User Collection It shoud return 200OK with user collection",
                  "timedOut": null,
                  "duration": 734,
                  "state": "failed",
                  "speed": null,
                  "pass": false,
                  "fail": true,
                  "pending": false,
                  "context": null,
                  "code": "cy.request('http://localhost:3000/users').then(result => {\n  expect(result.status).ok;\n  expect(result.body.data).exist;\n});",
                  "err": {
                    "message": "CypressError: `cy.request()` failed trying to load:\n\nhttp://localhost:3000/users\n\nWe attempted to make an http request to this URL but the request failed without a response.\n\nWe received this error at the network level:\n\n  > Error: connect ECONNREFUSED 127.0.0.1:3000\n\n-----------------------------------------------------------\n\nThe request we sent was:\n\nMethod: GET\nURL: http://localhost:3000/users\n\n-----------------------------------------------------------\n\nCommon situations why this would fail:\n  - you don't have internet access\n  - you forgot to run / boot your web server\n  - your web server isn't accessible\n  - you have weird network configuration settings on your computer\n\nhttps://on.cypress.io/request",
                    "estack": "CypressError: `cy.request()` failed trying to load:\n\nhttp://localhost:3000/users\n\nWe attempted to make an http request to this URL but the request failed without a response.\n\nWe received this error at the network level:\n\n  > Error: connect ECONNREFUSED 127.0.0.1:3000\n\n-----------------------------------------------------------\n\nThe request we sent was:\n\nMethod: GET\nURL: http://localhost:3000/users\n\n-----------------------------------------------------------\n\nCommon situations why this would fail:\n  - you don't have internet access\n  - you forgot to run / boot your web server\n  - your web server isn't accessible\n  - you have weird network configuration settings on your computer\n\nhttps://on.cypress.io/request\n    at http://localhost:64227/__cypress/runner/cypress_runner.js:145316:19\n    at tryCatcher (http://localhost:64227/__cypress/runner/cypress_runner.js:13222:23)\n    at http://localhost:64227/__cypress/runner/cypress_runner.js:8361:37\n    at tryCatcher (http://localhost:64227/__cypress/runner/cypress_runner.js:13222:23)\n    at Promise._settlePromiseFromHandler (http://localhost:64227/__cypress/runner/cypress_runner.js:11157:31)\n    at Promise._settlePromise (http://localhost:64227/__cypress/runner/cypress_runner.js:11214:18)\n    at Promise._settlePromise0 (http://localhost:64227/__cypress/runner/cypress_runner.js:11259:10)\n    at Promise._settlePromises (http://localhost:64227/__cypress/runner/cypress_runner.js:11335:18)\n    at _drainQueueStep (http://localhost:64227/__cypress/runner/cypress_runner.js:7929:12)\n    at _drainQueue (http://localhost:64227/__cypress/runner/cypress_runner.js:7922:9)\n    at Async.../../node_modules/bluebird/js/release/async.js.Async._drainQueues (http://localhost:64227/__cypress/runner/cypress_runner.js:7938:5)\n    at Async.drainQueues (http://localhost:64227/__cypress/runner/cypress_runner.js:7808:14)\nFrom Your Spec Code:\n    at Context.eval (http://localhost:64227/__cypress/tests?p=cypress\\integration\\11-testMock\\testStubJsonServer.spec.js:103:10)\n\nFrom Node.js Internals:\n  RequestError: Error: connect ECONNREFUSED 127.0.0.1:3000\n      at new RequestError (C:\\Users\\proov\\AppData\\Local\\Cypress\\Cache\\8.3.0\\Cypress\\resources\\app\\packages\\server\\node_modules\\request-promise-core\\lib\\errors.js:14:15)\n      at Request.plumbing.callback (C:\\Users\\proov\\AppData\\Local\\Cypress\\Cache\\8.3.0\\Cypress\\resources\\app\\packages\\server\\node_modules\\request-promise-core\\lib\\plumbing.js:87:29)\n      at Request.RP$callback [as _callback] (C:\\Users\\proov\\AppData\\Local\\Cypress\\Cache\\8.3.0\\Cypress\\resources\\app\\packages\\server\\node_modules\\request-promise-core\\lib\\plumbing.js:46:31)\n      at self.callback (C:\\Users\\proov\\AppData\\Local\\Cypress\\Cache\\8.3.0\\Cypress\\resources\\app\\packages\\server\\node_modules\\@cypress\\request\\request.js:185:22)\n      at Request.emit (events.js:315:20)\n      at Request.onRequestError (C:\\Users\\proov\\AppData\\Local\\Cypress\\Cache\\8.3.0\\Cypress\\resources\\app\\packages\\server\\node_modules\\@cypress\\request\\request.js:877:8)\n      at ClientRequest.emit (events.js:327:22)\n      at Socket.socketErrorListener (_http_client.js:469:9)\n      at Socket.emit (events.js:315:20)\n      at emitErrorNT (internal/streams/destroy.js:106:8)\n      at emitErrorCloseNT (internal/streams/destroy.js:74:3)\n      at processTicksAndRejections (internal/process/task_queues.js:80:21)\n  ",
                    "diff": null
                  },
                  "uuid": "c5dd21f9-7f71-40de-a662-4d0d5ef7cc1d",
                  "parentUUID": "291cb0d9-6123-4892-bfd1-b93794241c61",
                  "isHook": false,
                  "skipped": false
                }
              ],
              "suites": [],
              "passes": [],
              "failures": [
                "c5dd21f9-7f71-40de-a662-4d0d5ef7cc1d"
              ],
              "pending": [],
              "skipped": [],
              "duration": 734,
              "root": false,
              "rootEmpty": false,
              "_timeout": 2000
            }
          ],
          "passes": [],
          "failures": [],
          "pending": [],
          "skipped": [],
          "duration": 0,
          "root": false,
          "rootEmpty": false,
          "_timeout": 2000
        }
      ],
      "passes": [],
      "failures": [],
      "pending": [],
      "skipped": [],
      "duration": 0,
      "root": true,
      "rootEmpty": true,
      "_timeout": 2000
    }
  ],
  "meta": {
    "mocha": {
      "version": "7.0.1"
    },
    "mochawesome": {
      "options": {
        "quiet": false,
        "reportFilename": "mochawesome",
        "saveHtml": true,
        "saveJson": true,
        "consoleReporter": "spec",
        "useInlineDiffs": false,
        "code": true
      },
      "version": "6.2.2"
    },
    "marge": {
      "options": {
        "reportDir": "cypress/report/mochawesome-report",
        "overwrite": false,
        "html": true,
        "json": true
      },
      "version": "5.2.0"
    }
  }
}