{
  "stats": {
    "suites": 2,
    "tests": 1,
    "passes": 1,
    "pending": 0,
    "failures": 0,
    "start": "2021-08-29T15:53:57.737Z",
    "end": "2021-08-29T15:53:57.820Z",
    "duration": 83,
    "testsRegistered": 1,
    "passPercent": 100,
    "pendingPercent": 0,
    "other": 0,
    "hasOther": false,
    "skipped": 0,
    "hasSkipped": false
  },
  "results": [
    {
      "uuid": "4f73ad83-2588-4493-96b3-e2415bfd8bcd",
      "title": "",
      "fullFile": "cypress/integration/7-MochaAndChai/testChaiAssertion.spec.js",
      "file": "cypress/integration/7-MochaAndChai/testChaiAssertion.spec.js",
      "beforeHooks": [],
      "afterHooks": [],
      "tests": [],
      "suites": [
        {
          "uuid": "0836cc2e-c9dc-41e0-9cd3-58110632794f",
          "title": "User",
          "fullFile": "",
          "file": "",
          "beforeHooks": [],
          "afterHooks": [],
          "tests": [],
          "suites": [
            {
              "uuid": "e462ed05-cb9b-4c53-b5e0-647869688e70",
              "title": "Get User Collection",
              "fullFile": "",
              "file": "",
              "beforeHooks": [],
              "afterHooks": [],
              "tests": [
                {
                  "title": "It shoud return 200OK with user collection",
                  "fullTitle": "User Get User Collection It shoud return 200OK with user collection",
                  "timedOut": null,
                  "duration": 63,
                  "state": "passed",
                  "speed": "medium",
                  "pass": true,
                  "fail": false,
                  "pending": false,
                  "context": null,
                  "code": "cy.request('https://reqres.in/api/users?page=2').then(result => {\n  expect(result.status).ok;\n  expect(result.body.data).exist;\n});",
                  "err": {},
                  "uuid": "7744e2d4-98c2-41dd-a3a6-b65dda821381",
                  "parentUUID": "e462ed05-cb9b-4c53-b5e0-647869688e70",
                  "isHook": false,
                  "skipped": false
                }
              ],
              "suites": [],
              "passes": [
                "7744e2d4-98c2-41dd-a3a6-b65dda821381"
              ],
              "failures": [],
              "pending": [],
              "skipped": [],
              "duration": 63,
              "root": false,
              "rootEmpty": false,
              "_timeout": 2000
            }
          ],
          "passes": [],
          "failures": [],
          "pending": [],
          "skipped": [],
          "duration": 0,
          "root": false,
          "rootEmpty": false,
          "_timeout": 2000
        }
      ],
      "passes": [],
      "failures": [],
      "pending": [],
      "skipped": [],
      "duration": 0,
      "root": true,
      "rootEmpty": true,
      "_timeout": 2000
    }
  ],
  "meta": {
    "mocha": {
      "version": "7.0.1"
    },
    "mochawesome": {
      "options": {
        "quiet": false,
        "reportFilename": "mochawesome",
        "saveHtml": true,
        "saveJson": true,
        "consoleReporter": "spec",
        "useInlineDiffs": false,
        "code": true
      },
      "version": "6.2.2"
    },
    "marge": {
      "options": {
        "reportDir": "cypress/report/mochawesome-report",
        "overwrite": false,
        "html": true,
        "json": true
      },
      "version": "5.2.0"
    }
  }
}